<?xml version="1.0" encoding="UTF-8" standalone="no"?>
<!-- Created with Inkscape (http://www.inkscape.org/) -->

<svg
   xmlns:dc="http://purl.org/dc/elements/1.1/"
   xmlns:cc="http://creativecommons.org/ns#"
   xmlns:rdf="http://www.w3.org/1999/02/22-rdf-syntax-ns#"
   xmlns:svg="http://www.w3.org/2000/svg"
   xmlns="http://www.w3.org/2000/svg"
   xmlns:sodipodi="http://sodipodi.sourceforge.net/DTD/sodipodi-0.dtd"
   xmlns:inkscape="http://www.inkscape.org/namespaces/inkscape"
   width="210mm"
   height="297mm"
   viewBox="0 0 744.09448819 1052.3622047"
   id="svg2"
   version="1.1"
   inkscape:version="0.91 r13725"
   sodipodi:docname="sectormatrix.svg"
   inkscape:export-filename="C:\cygwin\home\axel22\workspaces\scala\parprog\statements\barneshut\sectormatrix.png"
   inkscape:export-xdpi="32.6516"
   inkscape:export-ydpi="32.6516">
  <defs
     id="defs4">
    <marker
       inkscape:stockid="Arrow1Mstart"
       orient="auto"
       refY="0.0"
       refX="0.0"
       id="marker4830"
       style="overflow:visible"
       inkscape:isstock="true">
      <path
         id="path4832"
         d="M 0.0,0.0 L 5.0,-5.0 L -12.5,0.0 L 5.0,5.0 L 0.0,0.0 z "
         style="fill-rule:evenodd;stroke:#000000;stroke-width:1pt;stroke-opacity:1;fill:#000000;fill-opacity:1"
         transform="scale(0.4) translate(10,0)" />
    </marker>
    <marker
       inkscape:isstock="true"
       style="overflow:visible"
       id="marker4542"
       refX="0.0"
       refY="0.0"
       orient="auto"
       inkscape:stockid="Arrow1Mstart"
       inkscape:collect="always">
      <path
         transform="scale(0.4) translate(10,0)"
         style="fill-rule:evenodd;stroke:#000000;stroke-width:1pt;stroke-opacity:1;fill:#000000;fill-opacity:1"
         d="M 0.0,0.0 L 5.0,-5.0 L -12.5,0.0 L 5.0,5.0 L 0.0,0.0 z "
         id="path4544" />
    </marker>
    <marker
       inkscape:stockid="Arrow1Mstart"
       orient="auto"
       refY="0.0"
       refX="0.0"
       id="Arrow1Mstart"
       style="overflow:visible"
       inkscape:isstock="true"
       inkscape:collect="always">
      <path
         id="path4196"
         d="M 0.0,0.0 L 5.0,-5.0 L -12.5,0.0 L 5.0,5.0 L 0.0,0.0 z "
         style="fill-rule:evenodd;stroke:#000000;stroke-width:1pt;stroke-opacity:1;fill:#000000;fill-opacity:1"
         transform="scale(0.4) translate(10,0)" />
    </marker>
    <marker
       inkscape:stockid="Arrow1Sstart"
       orient="auto"
       refY="0.0"
       refX="0.0"
       id="Arrow1Sstart"
       style="overflow:visible"
       inkscape:isstock="true">
      <path
         id="path4202"
         d="M 0.0,0.0 L 5.0,-5.0 L -12.5,0.0 L 5.0,5.0 L 0.0,0.0 z "
         style="fill-rule:evenodd;stroke:#000000;stroke-width:1pt;stroke-opacity:1;fill:#000000;fill-opacity:1"
         transform="scale(0.2) translate(6,0)" />
    </marker>
  </defs>
  <sodipodi:namedview
     id="base"
     pagecolor="#ffffff"
     bordercolor="#666666"
     borderopacity="1.0"
     inkscape:pageopacity="0.0"
     inkscape:pageshadow="2"
     inkscape:zoom="0.49497475"
     inkscape:cx="692.30131"
     inkscape:cy="448.67197"
     inkscape:document-units="px"
     inkscape:current-layer="layer1"
     showgrid="false"
     inkscape:window-width="1600"
     inkscape:window-height="877"
     inkscape:window-x="-4"
     inkscape:window-y="-4"
     inkscape:window-maximized="1" />
  <metadata
     id="metadata7">
    <rdf:RDF>
      <cc:Work
         rdf:about="">
        <dc:format>image/svg+xml</dc:format>
        <dc:type
           rdf:resource="http://purl.org/dc/dcmitype/StillImage" />
        <dc:title></dc:title>
      </cc:Work>
    </rdf:RDF>
  </metadata>
  <g
     inkscape:label="Layer 1"
     inkscape:groupmode="layer"
     id="layer1">
    <rect
       style="fill:none;fill-opacity:1;stroke:#000000;stroke-width:4.60580969;stroke-miterlimit:4;stroke-dasharray:none;stroke-dashoffset:0;stroke-opacity:1"
       id="rect4138"
       width="157.25688"
       height="157.25688"
       x="160.41716"
       y="293.24829" />
    <rect
       y="293.24829"
       x="317.80426"
       height="157.25688"
       width="157.25688"
       id="rect4140"
       style="fill:none;fill-opacity:1;stroke:#000000;stroke-width:4.60580969;stroke-miterlimit:4;stroke-dasharray:none;stroke-dashoffset:0;stroke-opacity:1" />
    <rect
       y="293.24829"
       x="474.40179"
       height="157.25688"
       width="157.25688"
       id="rect4142"
       style="fill:none;fill-opacity:1;stroke:#000000;stroke-width:4.60580969;stroke-miterlimit:4;stroke-dasharray:none;stroke-dashoffset:0;stroke-opacity:1" />
    <rect
       style="fill:none;fill-opacity:1;stroke:#000000;stroke-width:4.60580969;stroke-miterlimit:4;stroke-dasharray:none;stroke-dashoffset:0;stroke-opacity:1"
       id="rect4144"
       width="157.25688"
       height="157.25688"
       x="631.78894"
       y="293.24829" />
    <rect
       y="450.89859"
       x="160.41716"
       height="157.25688"
       width="157.25688"
       id="rect4146"
       style="fill:none;fill-opacity:1;stroke:#000000;stroke-width:4.60580969;stroke-miterlimit:4;stroke-dasharray:none;stroke-dashoffset:0;stroke-opacity:1" />
    <rect
       style="fill:none;fill-opacity:1;stroke:#000000;stroke-width:4.60580969;stroke-miterlimit:4;stroke-dasharray:none;stroke-dashoffset:0;stroke-opacity:1"
       id="rect4148"
       width="157.25688"
       height="157.25688"
       x="317.80426"
       y="450.89859" />
    <rect
       style="fill:none;fill-opacity:1;stroke:#000000;stroke-width:4.60580969;stroke-miterlimit:4;stroke-dasharray:none;stroke-dashoffset:0;stroke-opacity:1"
       id="rect4150"
       width="157.25688"
       height="157.25688"
       x="474.40179"
       y="450.89859" />
    <rect
       y="450.89859"
       x="631.78894"
       height="157.25688"
       width="157.25688"
       id="rect4152"
       style="fill:none;fill-opacity:1;stroke:#000000;stroke-width:4.60580969;stroke-miterlimit:4;stroke-dasharray:none;stroke-dashoffset:0;stroke-opacity:1" />
    <rect
       y="608.02252"
       x="160.41716"
       height="157.25688"
       width="157.25688"
       id="rect4154"
       style="fill:none;fill-opacity:1;stroke:#000000;stroke-width:4.60580969;stroke-miterlimit:4;stroke-dasharray:none;stroke-dashoffset:0;stroke-opacity:1" />
    <rect
       style="fill:none;fill-opacity:1;stroke:#000000;stroke-width:4.60580969;stroke-miterlimit:4;stroke-dasharray:none;stroke-dashoffset:0;stroke-opacity:1"
       id="rect4156"
       width="157.25688"
       height="157.25688"
       x="317.80426"
       y="608.02252" />
    <rect
       style="fill:none;fill-opacity:1;stroke:#000000;stroke-width:4.60580969;stroke-miterlimit:4;stroke-dasharray:none;stroke-dashoffset:0;stroke-opacity:1"
       id="rect4158"
       width="157.25688"
       height="157.25688"
       x="474.40179"
       y="608.02252" />
    <rect
       y="608.02252"
       x="631.78894"
       height="157.25688"
       width="157.25688"
       id="rect4160"
       style="fill:none;fill-opacity:1;stroke:#000000;stroke-width:4.60580969;stroke-miterlimit:4;stroke-dasharray:none;stroke-dashoffset:0;stroke-opacity:1" />
    <rect
       style="fill:none;fill-opacity:1;stroke:#000000;stroke-width:4.60580969;stroke-miterlimit:4;stroke-dasharray:none;stroke-dashoffset:0;stroke-opacity:1"
       id="rect4162"
       width="157.25688"
       height="157.25688"
       x="160.41716"
       y="765.67279" />
    <rect
       y="765.67279"
       x="317.80426"
       height="157.25688"
       width="157.25688"
       id="rect4164"
       style="fill:none;fill-opacity:1;stroke:#000000;stroke-width:4.60580969;stroke-miterlimit:4;stroke-dasharray:none;stroke-dashoffset:0;stroke-opacity:1" />
    <rect
       y="765.67279"
       x="474.40179"
       height="157.25688"
       width="157.25688"
       id="rect4166"
       style="fill:none;fill-opacity:1;stroke:#000000;stroke-width:4.60580969;stroke-miterlimit:4;stroke-dasharray:none;stroke-dashoffset:0;stroke-opacity:1" />
    <rect
       style="fill:none;fill-opacity:1;stroke:#000000;stroke-width:4.60580969;stroke-miterlimit:4;stroke-dasharray:none;stroke-dashoffset:0;stroke-opacity:1"
       id="rect4168"
       width="157.25688"
       height="157.25688"
       x="631.78894"
       y="765.67279" />
    <circle
       style="fill:#000000;fill-opacity:1;stroke:#000000;stroke-width:5;stroke-miterlimit:4;stroke-dasharray:none;stroke-dashoffset:0;stroke-opacity:1"
       id="path4170"
       cx="435"
       cy="491.64792"
       r="13.571428" />
    <circle
       r="13.571428"
       cy="854.50507"
       cx="699.28577"
       id="circle4172"
       style="fill:#000000;fill-opacity:1;stroke:#000000;stroke-width:5;stroke-miterlimit:4;stroke-dasharray:none;stroke-dashoffset:0;stroke-opacity:1" />
    <circle
       style="fill:#000000;fill-opacity:1;stroke:#000000;stroke-width:5;stroke-miterlimit:4;stroke-dasharray:none;stroke-dashoffset:0;stroke-opacity:1"
       id="circle4174"
       cx="769.28577"
       cy="824.50507"
       r="13.571428" />
    <circle
       r="13.571428"
       cy="894.50507"
       cx="790.71436"
       id="circle4176"
       style="fill:#000000;fill-opacity:1;stroke:#000000;stroke-width:5;stroke-miterlimit:4;stroke-dasharray:none;stroke-dashoffset:0;stroke-opacity:1" />
    <circle
       style="fill:#000000;fill-opacity:1;stroke:#000000;stroke-width:5;stroke-miterlimit:4;stroke-dasharray:none;stroke-dashoffset:0;stroke-opacity:1"
       id="circle4178"
       cx="726.42865"
       cy="295.93362"
       r="13.571428" />
    <circle
       r="13.571428"
       cy="805.93365"
       cx="267.85727"
       id="circle4180"
       style="fill:#000000;fill-opacity:1;stroke:#000000;stroke-width:5;stroke-miterlimit:4;stroke-dasharray:none;stroke-dashoffset:0;stroke-opacity:1" />
    <circle
       style="fill:#000000;fill-opacity:1;stroke:#000000;stroke-width:5;stroke-miterlimit:4;stroke-dasharray:none;stroke-dashoffset:0;stroke-opacity:1"
       id="circle4182"
       cx="555.20319"
       cy="717.37964"
       r="13.571428" />
    <path
       style="fill:none;fill-rule:evenodd;stroke:#000000;stroke-width:5;stroke-linecap:butt;stroke-linejoin:miter;stroke-opacity:1;stroke-miterlimit:4;stroke-dasharray:15, 5;stroke-dashoffset:0;marker-start:url(#Arrow1Mstart)"
       d="m 721.42857,569.50506 c 250,-70 350.00003,-5.71428 350.00003,-5.71428"
       id="path4184"
       inkscape:connector-curvature="0" />
    <text
       xml:space="preserve"
       style="font-style:normal;font-weight:normal;font-size:40px;line-height:125%;font-family:sans-serif;letter-spacing:0px;word-spacing:0px;fill:#000000;fill-opacity:1;stroke:none;stroke-width:1px;stroke-linecap:butt;stroke-linejoin:miter;stroke-opacity:1"
       x="1090"
       y="582.36218"
       id="text4530"
       sodipodi:linespacing="125%"><tspan
         sodipodi:role="line"
         id="tspan4532"
         x="1090"
         y="582.36218"
         style="-inkscape-font-specification:'Andale Mono';font-family:'Andale Mono';font-weight:normal;font-style:normal;font-stretch:normal;font-variant:normal">ConcBuffer[Body]</tspan></text>
    <path
       inkscape:connector-curvature="0"
       id="path4540"
       d="m 738.57143,392.3622 c 250,-70 395.71437,142.85715 395.71437,142.85715"
       style="fill:none;fill-rule:evenodd;stroke:#000000;stroke-width:5;stroke-linecap:butt;stroke-linejoin:miter;stroke-miterlimit:4;stroke-dasharray:15, 5;stroke-dashoffset:0;stroke-opacity:1;marker-start:url(#marker4542)"
       sodipodi:nodetypes="cc" />
    <path
       sodipodi:nodetypes="cc"
       style="fill:none;fill-rule:evenodd;stroke:#000000;stroke-width:5;stroke-linecap:butt;stroke-linejoin:miter;stroke-miterlimit:4;stroke-dasharray:15, 5;stroke-dashoffset:0;stroke-opacity:1;marker-start:url(#marker4830)"
       d="m 725.71429,699.50506 c 280.00001,38.57143 402.85731,-92.85714 402.85731,-92.85714"
       id="path4828"
       inkscape:connector-curvature="0" />
    <text
       xml:space="preserve"
       style="font-style:normal;font-weight:normal;font-size:40px;line-height:125%;font-family:sans-serif;letter-spacing:0px;word-spacing:0px;fill:#000000;fill-opacity:1;stroke:none;stroke-width:1px;stroke-linecap:butt;stroke-linejoin:miter;stroke-opacity:1"
       x="171.72594"
       y="345.25543"
       id="text5218"
       sodipodi:linespacing="125%"><tspan
         sodipodi:role="line"
         id="tspan5220"
         x="171.72594"
         y="345.25543">0,0</tspan></text>
    <text
       sodipodi:linespacing="125%"
       id="text5222"
       y="345.25543"
       x="341.43158"
       style="font-style:normal;font-weight:normal;font-size:40px;line-height:125%;font-family:sans-serif;letter-spacing:0px;word-spacing:0px;fill:#000000;fill-opacity:1;stroke:none;stroke-width:1px;stroke-linecap:butt;stroke-linejoin:miter;stroke-opacity:1"
       xml:space="preserve"><tspan
         y="345.25543"
         x="341.43158"
         id="tspan5224"
         sodipodi:role="line">1,0</tspan></text>
    <text
       xml:space="preserve"
       style="font-style:normal;font-weight:normal;font-size:40px;line-height:125%;font-family:sans-serif;letter-spacing:0px;word-spacing:0px;fill:#000000;fill-opacity:1;stroke:none;stroke-width:1px;stroke-linecap:butt;stroke-linejoin:miter;stroke-opacity:1"
       x="494.97476"
       y="345.25543"
       id="text5226"
       sodipodi:linespacing="125%"><tspan
         sodipodi:role="line"
         id="tspan5228"
         x="494.97476"
         y="345.25543">2,0</tspan></text>
    <text
       sodipodi:linespacing="125%"
       id="text5230"
       y="345.25543"
       x="650.53827"
       style="font-style:normal;font-weight:normal;font-size:40px;line-height:125%;font-family:sans-serif;letter-spacing:0px;word-spacing:0px;fill:#000000;fill-opacity:1;stroke:none;stroke-width:1px;stroke-linecap:butt;stroke-linejoin:miter;stroke-opacity:1"
       xml:space="preserve"><tspan
         y="345.25543"
         x="650.53827"
         id="tspan5232"
         sodipodi:role="line">3,0</tspan></text>
    <text
       sodipodi:linespacing="125%"
       id="text5234"
       y="504.85953"
       x="171.72594"
       style="font-style:normal;font-weight:normal;font-size:40px;line-height:125%;font-family:sans-serif;letter-spacing:0px;word-spacing:0px;fill:#000000;fill-opacity:1;stroke:none;stroke-width:1px;stroke-linecap:butt;stroke-linejoin:miter;stroke-opacity:1"
       xml:space="preserve"><tspan
         y="504.85953"
         x="171.72594"
         id="tspan5236"
         sodipodi:role="line">0,1</tspan></text>
    <text
       xml:space="preserve"
       style="font-style:normal;font-weight:normal;font-size:40px;line-height:125%;font-family:sans-serif;letter-spacing:0px;word-spacing:0px;fill:#000000;fill-opacity:1;stroke:none;stroke-width:1px;stroke-linecap:butt;stroke-linejoin:miter;stroke-opacity:1"
       x="341.43158"
       y="504.85953"
       id="text5238"
       sodipodi:linespacing="125%"><tspan
         sodipodi:role="line"
         id="tspan5240"
         x="341.43158"
         y="504.85953">1,1</tspan></text>
    <text
       sodipodi:linespacing="125%"
       id="text5242"
       y="504.85953"
       x="494.97476"
       style="font-style:normal;font-weight:normal;font-size:40px;line-height:125%;font-family:sans-serif;letter-spacing:0px;word-spacing:0px;fill:#000000;fill-opacity:1;stroke:none;stroke-width:1px;stroke-linecap:butt;stroke-linejoin:miter;stroke-opacity:1"
       xml:space="preserve"><tspan
         y="504.85953"
         x="494.97476"
         id="tspan5244"
         sodipodi:role="line">2,1</tspan></text>
    <text
       xml:space="preserve"
       style="font-style:normal;font-weight:normal;font-size:40px;line-height:125%;font-family:sans-serif;letter-spacing:0px;word-spacing:0px;fill:#000000;fill-opacity:1;stroke:none;stroke-width:1px;stroke-linecap:butt;stroke-linejoin:miter;stroke-opacity:1"
       x="650.53827"
       y="504.85953"
       id="text5246"
       sodipodi:linespacing="125%"><tspan
         sodipodi:role="line"
         id="tspan5248"
         x="650.53827"
         y="504.85953">3,1</tspan></text>
    <text
       xml:space="preserve"
       style="font-style:normal;font-weight:normal;font-size:40px;line-height:125%;font-family:sans-serif;letter-spacing:0px;word-spacing:0px;fill:#000000;fill-opacity:1;stroke:none;stroke-width:1px;stroke-linecap:butt;stroke-linejoin:miter;stroke-opacity:1"
       x="171.72594"
       y="656.38239"
       id="text5250"
       sodipodi:linespacing="125%"><tspan
         sodipodi:role="line"
         id="tspan5252"
         x="171.72594"
         y="656.38239">0,2</tspan></text>
    <text
       sodipodi:linespacing="125%"
       id="text5254"
       y="656.38239"
       x="341.43158"
       style="font-style:normal;font-weight:normal;font-size:40px;line-height:125%;font-family:sans-serif;letter-spacing:0px;word-spacing:0px;fill:#000000;fill-opacity:1;stroke:none;stroke-width:1px;stroke-linecap:butt;stroke-linejoin:miter;stroke-opacity:1"
       xml:space="preserve"><tspan
         y="656.38239"
         x="341.43158"
         id="tspan5256"
         sodipodi:role="line">1,2</tspan></text>
    <text
       xml:space="preserve"
       style="font-style:normal;font-weight:normal;font-size:40px;line-height:125%;font-family:sans-serif;letter-spacing:0px;word-spacing:0px;fill:#000000;fill-opacity:1;stroke:none;stroke-width:1px;stroke-linecap:butt;stroke-linejoin:miter;stroke-opacity:1"
       x="494.97476"
       y="656.38239"
       id="text5258"
       sodipodi:linespacing="125%"><tspan
         sodipodi:role="line"
         id="tspan5260"
         x="494.97476"
         y="656.38239">2,2</tspan></text>
    <text
       sodipodi:linespacing="125%"
       id="text5262"
       y="656.38239"
       x="650.53827"
       style="font-style:normal;font-weight:normal;font-size:40px;line-height:125%;font-family:sans-serif;letter-spacing:0px;word-spacing:0px;fill:#000000;fill-opacity:1;stroke:none;stroke-width:1px;stroke-linecap:butt;stroke-linejoin:miter;stroke-opacity:1"
       xml:space="preserve"><tspan
         y="656.38239"
         x="650.53827"
         id="tspan5264"
         sodipodi:role="line">3,2</tspan></text>
    <text
       sodipodi:linespacing="125%"
       id="text5266"
       y="813.96619"
       x="171.72594"
       style="font-style:normal;font-weight:normal;font-size:40px;line-height:125%;font-family:sans-serif;letter-spacing:0px;word-spacing:0px;fill:#000000;fill-opacity:1;stroke:none;stroke-width:1px;stroke-linecap:butt;stroke-linejoin:miter;stroke-opacity:1"
       xml:space="preserve"><tspan
         y="813.96619"
         x="171.72594"
         id="tspan5268"
         sodipodi:role="line">0,3</tspan></text>
    <text
       xml:space="preserve"
       style="font-style:normal;font-weight:normal;font-size:40px;line-height:125%;font-family:sans-serif;letter-spacing:0px;word-spacing:0px;fill:#000000;fill-opacity:1;stroke:none;stroke-width:1px;stroke-linecap:butt;stroke-linejoin:miter;stroke-opacity:1"
       x="341.43158"
       y="813.96619"
       id="text5270"
       sodipodi:linespacing="125%"><tspan
         sodipodi:role="line"
         id="tspan5272"
         x="341.43158"
         y="813.96619">1,3</tspan></text>
    <text
       sodipodi:linespacing="125%"
       id="text5274"
       y="813.96619"
       x="494.97476"
       style="font-style:normal;font-weight:normal;font-size:40px;line-height:125%;font-family:sans-serif;letter-spacing:0px;word-spacing:0px;fill:#000000;fill-opacity:1;stroke:none;stroke-width:1px;stroke-linecap:butt;stroke-linejoin:miter;stroke-opacity:1"
       xml:space="preserve"><tspan
         y="813.96619"
         x="494.97476"
         id="tspan5276"
         sodipodi:role="line">2,3</tspan></text>
    <text
       xml:space="preserve"
       style="font-style:normal;font-weight:normal;font-size:40px;line-height:125%;font-family:sans-serif;letter-spacing:0px;word-spacing:0px;fill:#000000;fill-opacity:1;stroke:none;stroke-width:1px;stroke-linecap:butt;stroke-linejoin:miter;stroke-opacity:1"
       x="650.53827"
       y="813.96619"
       id="text5278"
       sodipodi:linespacing="125%"><tspan
         sodipodi:role="line"
         id="tspan5280"
         x="650.53827"
         y="813.96619">3,3</tspan></text>
  </g>
</svg>
